{
	"authHost": "http://localhost:8000",
	"authEndpoint": "/broadcasting/auth",
	"clients": [
		{
			"appId": "72d0af73ea0e1ece",
			"key": "16b46221835c8eaf787670f7e77da5e2"
		}
	],
	"database": "redis",
	"databaseConfig": {
		"redis": {},
		"sqlite": {
			"databasePath": "/database/laravel-echo-server.sqlite"
		},
		"port": "6379",
		"host": "127.0.0.1"		
	},
	
	"devMode": true,
	"host": null,
	"port": "6001",
	"protocol": "http",
	"socketio": {},
	"sslCertPath": "",
	"sslKeyPath": "",
	"sslCertChainPath": "",
	"sslPassphrase": "",
	"apiOriginAllow": {
		"allowCors": true,
		"allowOrigin": "http://localhost",
		"allowMethods": "GET, POST",
		"allowHeaders": "Origin, Content-Type, X-Auth-Token, X-Requested-With, Accept, Authorization, X-CSRF-TOKEN, X-Socket-Id"
	}
}